{
  "loginToken": "NzQ5MzA1Njk1MTkwNTE1ODAz.X0qDTw.SuKRN3vW0iqtuU6DlGCNOQhdzy0",

  "prefix": "-",
  "ticketChannelId": 0,
  "dmSessionMinutes": 10,

  "enableActivityMessage": true,
  "activityMessage": "hello",

  "guildId": 0,

  "transcriptChannelId": 0,

  "embedColor": "0000FF",

  "roles": {
    "ADMIN": 0,
    "MOD": 0,
    "ALL_STAFF": 0
  },

  "commandPrivileges": {
    "ADD": "ALL_STAFF",
    "RENAME": "ALL_STAFF",
    "CLOSE": "MOD",
    "KICK": "ALL_STAFF"
  },

  "categories": [{
    "id": 1,
    "discordId": 0,
    "accessLevel": "MOD",
    "name": "Report a Bug",
    "questions": [
      "What is your IGN?",
      "What part of our network is this bug affecting?",
      "When did you encounter this bug? Can you replicate it?"
    ]
  }, {
    "id": 2,
    "discordId": 0,
    "accessLevel": "ALL_STAFF",
    "name": "Report a Player",
    "questions": [
      "What is your IGN?",
      "What is the IGN of the player you are reporting?",
      "What are you reporting this player for?",
      "Do you have any evidence to support your report?"
    ]
  }, {
    "id": 3,
    "discordId": 0,
    "accessLevel": "ADMIN",
    "name": "Store Support",
    "questions": [
      "What is your IGN?",
      "Please detail your issues with the store."
    ]
  }, {
    "id": 4,
    "discordId": 0,
    "accessLevel": "ADMIN",
    "name": "Report a Staff Member",
    "questions": [
      "What is your IGN?",
      "Which staff member are you reporting?",
      "What are you reporting this person for?",
      "Do you have any evidence to support your report?"
    ]
  }, {
    "id": 5,
    "discordId": 0,
    "accessLevel": "ADMIN",
    "name": "Apply for Staff",
    "questions": [
      "What is your IGN?",
      "What is your age?",
      "What is your timezone?",
      "What made you want to apply for our server?",
      "What makes you qualified to be a staff member?"
    ]
  }, {
    "id": 6,
    "discordId": 0,
    "accessLevel": "ADMIN",
    "name": "Apply for Media",
    "questions": [
      "What is your IGN?",
      "How long have you been creating content?",
      "How long have you been playing on our server?",
      "Please link your channels."
    ]
  }, {
    "id": 7,
    "discordId": 0,
    "accessLevel": "MOD",
    "name": "Appeal a Punishment",
    "questions": [
      "What is your IGN?",
      "What type of punishment are you appealing?",
      "What did you get punished for?",
      "Are you guilty or innocent?",
      "Why should we remove your punishment?"
    ]
  }, {
    "id": 8,
    "discordId": 0,
    "accessLevel": "ALL_STAFF",
    "name": "General Support",
    "questions": [
      "What is your IGN?",
      "How can we help you?"
    ]
  }]
}