D:\MonacoDiscord\src\main\java\ooo\marto\monaco\manager\command\CommandClose.java
D:\MonacoDiscord\src\main\java\ooo\marto\monaco\listener\MessageListener.java
D:\MonacoDiscord\src\main\java\ooo\marto\monaco\manager\command\CommandAdd.java
D:\MonacoDiscord\src\main\java\ooo\marto\monaco\config\TicketCategory.java
D:\MonacoDiscord\src\main\java\ooo\marto\monaco\manager\command\CommandRename.java
D:\MonacoDiscord\src\main\java\ooo\marto\monaco\util\ChannelUtil.java
D:\MonacoDiscord\src\main\java\ooo\marto\monaco\config\IDiscordConfig.java
D:\MonacoDiscord\src\main\java\ooo\marto\monaco\util\MessageUtil.java
D:\MonacoDiscord\src\main\java\ooo\marto\monaco\manager\command\CommandKick.java
D:\MonacoDiscord\src\main\java\ooo\marto\monaco\manager\direct\TicketProgress.java
D:\MonacoDiscord\src\main\java\ooo\marto\monaco\manager\command\DiscordCommand.java
D:\MonacoDiscord\src\main\java\ooo\marto\monaco\manager\direct\DMHandler.java
D:\MonacoDiscord\src\main\java\ooo\marto\monaco\config\Permission.java
D:\MonacoDiscord\src\main\java\ooo\marto\monaco\config\AccessLevel.java
D:\MonacoDiscord\src\main\java\ooo\marto\monaco\MonacoDiscord.java
D:\MonacoDiscord\src\main\java\ooo\marto\monaco\util\EmbedUtil.java
D:\MonacoDiscord\src\main\java\ooo\marto\monaco\config\JsonDiscordConfig.java
D:\MonacoDiscord\src\main\java\ooo\marto\monaco\manager\command\CommandManager.java
